@startuml tri-par-selection
  start

  :CONST N
  VAR i,j,m : NOMBRE
  VAR A : TABLEAU[0 à N-1] de NOMBRE;

  :i <- 0;
  while (i < N) is (vrai)
    : m <- i;
    : j <- i + 1;
    while (j < N) is (vrai)
      if (A[j] < A[m]) then (vrai)
        : m <- j;
      endif
      :j <- j + 1;
    endwhile
    :échange A[m] avec A[i];
    :i <- i + 1;
  endwhile
  
  stop

@enduml
