@startuml distance-levenshtein

start
  :VARIABLE
    a, b: CHAINE
    d: TABLEAU DE TABLEAU DE ENTIER
    i, j, n, m, cout: ENTIER;

  :initialiser a et b avec 
  des chaines constantes;

    :n <- longueur_chaine(a)
    m <- longueur_chaine(b);

  :i <- 0;
  while (i < n) is (vrai)
    :d[i, 0] <- i;
  endwhile
  :j <- 0;
  while (j < m) is (vrai)
    :d[0, j] <- j;
  endwhile

  :i <- 0;
  while (i < n) is (vrai)
    :j <- 0;
    while (j < m) is (vrai)
      if (a[i] = b[j]) then(vrai)
        :cout <- 0;
      else (faux)
        :cout <- 1;
      endif
      :d[i, j] <- minimum(
          d[i-1, j  ] + 1,
          d[i  , j-1] + 1,
          d[i-1, j-1]  + cout
      );
      :j <- j + 1;
    endwhile
    :i <- i + 1;
  endwhile


  :renvoyer d[n,m];
stop
@enduml